Finist’R 2024 - Introduction to nimble
…
Now, we can use the ggsfunction which performs the post processing that we made above.

formatted_results <- ggs(posterior_samples_neg_bin)
formatted_results # same as above

# A tibble: 3,600 × 4
   Iteration Chain Parameter value
       <int> <int> <fct>     <dbl>
 1         1     1 prob      0.286
 2         2     1 prob      0.310
 3         3     1 prob      0.301
 4         4     1 prob      0.304
 5         5     1 prob      0.348
 6         6     1 prob      0.325
 7         7     1 prob      0.308
 8         8     1 prob      0.346
 9         9     1 prob      0.358
10        10     1 prob      0.383
# ℹ 3,590 more rows
…
